…
First look into the data.
Note: could clean up data but not required for next few steps.


```r
as_tibble(data)
```

```
## # A tibble: 25,600 x 13
##        Brand `Store Number`             `Store Name` `Ownership Type`
##        <chr>          <chr>                    <chr>            <chr>
##  1 Starbucks   47370-257954            Meritxell, 96         Licensed
##  2 Starbucks   22331-212325         Ajman Drive Thru         Licensed
##  3 Starbucks   47089-256771                Dana Mall         Licensed
##  4 Starbucks   22126-218024               Twofour 54         Licensed
##  5 Starbucks   17127-178586             Al Ain Tower         Licensed
##  6 Starbucks   17688-182164 Dalma Mall, Ground Floor         Licensed
##  7 Starbucks   18182-182165      Dalma Mall, Level 1         Licensed
##  8 Starbucks   23359-229184       Debenhams Yas Mall         Licensed
##  9 Starbucks    30781-99022         Khalidiya Street         Licensed
## 10 Starbucks   20423-205465        Eastern Mangroves         Licensed
## # ... with 25,590 more rows, and 9 more variables: `Street Address` <chr>,
## #   City <chr>, `State/Province` <chr>, Country <chr>, Postcode <chr>,
## #   `Phone Number` <chr>, Timezone <chr>, Longitude <dbl>, Latitude <dbl>
```
…
